%YAML 1.1
%TAG !u! tag:unity3d.com,2011:
--- !u!1001 &100100000
Prefab:
  m_ObjectHideFlags: 1
  serializedVersion: 2
  m_Modification:
    m_TransformParent: {fileID: 0}
    m_Modifications: []
    m_RemovedComponents: []
  m_SourcePrefab: {fileID: 0}
  m_RootGameObject: {fileID: 1163016713368016}
  m_IsPrefabAsset: 1
--- !u!1 &1163016713368016
GameObject:
  m_ObjectHideFlags: 0
  m_CorrespondingSourceObject: {fileID: 0}
  m_PrefabInternal: {fileID: 100100000}
  serializedVersion: 6
  m_Component:
  - component: {fileID: 4577984543623812}
  - component: {fileID: 114898290010387526}
  m_Layer: 0
  m_Name: TreasureSpawner
  m_TagString: Untagged
  m_Icon: {fileID: 0}
  m_NavMeshLayer: 0
  m_StaticEditorFlags: 0
  m_IsActive: 1
--- !u!4 &4577984543623812
Transform:
  m_ObjectHideFlags: 1
  m_CorrespondingSourceObject: {fileID: 0}
  m_PrefabInternal: {fileID: 100100000}
  m_GameObject: {fileID: 1163016713368016}
  m_LocalRotation: {x: 0, y: 0, z: 0, w: 1}
  m_LocalPosition: {x: 0, y: 0, z: 0}
  m_LocalScale: {x: 1, y: 1, z: 1}
  m_Children: []
  m_Father: {fileID: 0}
  m_RootOrder: 0
  m_LocalEulerAnglesHint: {x: 0, y: 0, z: 0}
--- !u!114 &114898290010387526
MonoBehaviour:
  m_ObjectHideFlags: 1
  m_CorrespondingSourceObject: {fileID: 0}
  m_PrefabInternal: {fileID: 100100000}
  m_GameObject: {fileID: 1163016713368016}
  m_Enabled: 1
  m_EditorHideFlags: 0
  m_Script: {fileID: 11500000, guid: bb3b06b9570f042d48583258ab17eb57, type: 3}
  m_Name: 
  m_EditorClassIdentifier: 
  options:
  - {fileID: 1091740323308796, guid: 66f8018bfa63547c09fcc686b9bd5469, type: 2}
  - {fileID: 1743432120857392, guid: 91c68cab1e9ec474ea14a72cf37fb2c8, type: 2}
  - {fileID: 1702725494973034, guid: 18965019e50464e82ad6050b1f91c8c1, type: 2}
  - {fileID: 0}
  probabilities:
  - 10
  - 35
  - 15
  - 40
